#117 - Siena

owner = A03
controller = A03
add_core = A03
culture = moon_elf
religion = regent_court
hre = no
base_tax = 5
base_production = 7
trade_goods = silk
base_manpower = 2
capital = ""
is_city = yes







