#159 - Silistria

owner = A01
controller = A01
add_core = A01
add_core = A68
culture = redfoot_halfling
religion = regent_court
hre = no
base_tax = 4
base_production = 3
trade_goods = grain
base_manpower = 3
capital = "" 
is_city = yes









