# No previous file for Enderta
owner = G61
controller = G61
add_core = G61
culture = kimabhen
religion = kheionism
capital = ""

hre = no

base_tax = 2
base_production = 1
base_manpower = 1

trade_goods = wool

1443.1.4 = {	
	owner = G46
	controller = G46
}