#325 - Kastamonu

owner = A72
controller = A72
add_core = A72
culture = arannese
religion = regent_court

hre = yes

base_tax = 3
base_production = 3
base_manpower = 1

trade_goods = salt

capital = ""

is_city = yes








