country_decisions = {
	start_extensive_research = {
		major = yes
		potential = {
			OR = {
				has_disaster = serpent_rot
				has_country_modifier = serpent_rot_outbreak
			}
			NOT = { has_global_flag = serpent_rot_happened }
			NOT = { has_country_flag = extensive_research }
		}
		
		provinces_to_highlight = {
		}
		
		allow = {
			adm_power = 150
			mil_power = 150
			dip_power = 150
		}
		
		effect = {
			add_adm_power = -150
			add_mil_power = -150
			add_dip_power = -150
			hidden_effect = {
				change_variable = {
					which = serpentCureNational
					value = 5
				}
				set_country_flag = extensive_research
			}
		}
		
		ai_will_do = {
			factor = 400
		}
	}
	
	finance_extensive_research = {
		major = yes
		potential = {
			OR = {
				has_disaster = serpent_rot
				has_country_modifier = serpent_rot_outbreak
			}
			NOT = { has_global_flag = serpent_rot_happened }
			NOT = { has_country_flag = finance_research }
			had_country_flag = {
				flag = extensive_research
				days = 365
			}
		}
		
		provinces_to_highlight = {
		}
		
		allow = {
			years_of_income = 1.5
		}
		
		effect = {
			add_years_of_income = -1.5
			hidden_effect = {
				change_variable = {
					which = serpentCureNational
					value = 5
				}
				set_country_flag = finance_research
			}
		}
		
		ai_will_do = {
			factor = 400
		}
	}
	
	cooperative_research = {
		major = yes
		potential = {
			OR = {
				has_disaster = serpent_rot
				has_country_modifier = serpent_rot_outbreak
			}
			NOT = { has_global_flag = serpent_rot_happened }
			NOT = { has_country_flag = cooperative_research }
			had_country_flag = {
				flag = finance_research
				days = 365
			}
		}
		
		provinces_to_highlight = {
		}
		
		allow = {
			any_known_country = {
				OR = {
					has_disaster = serpent_rot
					has_country_modifier = serpent_rot_outbreak
				}
				custom_trigger_tooltip = {
					tooltip = financed_research_tooltip
					has_country_flag = finance_research
				}
				has_opinion = {
					who = ROOT
					value = 100
				}
			}
			years_of_income = 1
			adm_power = 150
			mil_power = 150
			dip_power = 150
		}
		
		effect = {
			add_adm_power = -150
			add_mil_power = -150
			add_dip_power = -150
			add_years_of_income = -1
			hidden_effect = {
				REB = {
					change_variable = {
						which = serpentCureGlobal
						value = 10
					}
				}
				change_variable = {
					which = serpentCureNational
					value = 7
				}
				set_country_flag = cooperative_research
			}
		}
		
		ai_will_do = {
			factor = 400
		}
	}
	
	fight_it_with_fire = {
		major = yes
		potential = {
			ai = no
			OR = {
				has_disaster = serpent_rot
				has_country_modifier = serpent_rot_outbreak
			}
			has_country_flag = fight_it_with_fire
		}
		
		provinces_to_highlight = {
			NOT = { has_province_modifier = using_fire }
			owned_by = ROOT
		}
		
		allow = {
			any_owned_province = {
				NOT = { has_province_modifier = using_fire }
				owned_by = ROOT
				controlled_by = ROOT
				num_of_units_in_province = {
					who = ROOT
					amount = 20
				}
			}
		}
		
		effect = {
			add_treasury = -80
			random_owned_province = {
				limit = {
					NOT = { has_province_modifier = using_fire }
					owned_by = ROOT
					controlled_by = ROOT
					num_of_units_in_province = {
						who = ROOT
						amount = 20
					}
				}
				add_permanent_province_modifier = {
					name = using_fire
					duration = 3650
				}
				add_devastation = 50
			}
		}
		
		ai_will_do = {
			factor = 0
		}
	}
}
