namespace = orc_flavor

# Ozarm'chadash
country_event = {
	id = orc_flavor.1
	title = orc_flavor.1.t
	desc = orc_flavor.1.d
	picture = ACCUSATION_eventPicture

	trigger = {
		culture_group = orcish
		NOT = { stability = 3 }
		NOT = { mil = 5 }
		NOT = { has_ruler_modifier = ozarm_chadash_without_fight }
		NOT = { has_ruler_modifier = ozarm_chadash_outraged_by_dishonor }
	}
	
	mean_time_to_happen = {
		months = 240
		
		modifier = {
			factor = 0.9
			NOT = { stability = 0 }
		}
		modifier = {
			factor = 0.8
			NOT = { stability = -1 }
		}
		modifier = {
			factor = 0.7
			NOT = { stability = -2 }
		}
		modifier = {
			factor = 0.8
			NOT = { mil = 3 }
		}
		modifier = {
			factor = 0.7
			NOT = { mil = 2 }
		}
		modifier = {
			factor = 0.8
			NOT = { prestige = -25 }
		}
		modifier = {
			factor = 0.8
			NOT = { prestige = -50 }
		}
		modifier = {
			factor = 0.8
			NOT = { prestige = -75 }
		}
		modifier = {
			factor = 0.5
			NOT = { legitimacy = 50 }
		}
		modifier = {
			factor = 0.9
			has_reform = orcish_kingdom_reform
		}
		modifier = {
			factor = 0.8
			full_idea_group = aristocracy_ideas
		}
		modifier = {
			factor = 1.25
			is_year = 1600
		}
		modifier = {
			factor = 1.25
			is_year = 1700
		}
		modifier = {
			factor = 2
			full_idea_group = innovative_ideas
		}
		modifier = {
			factor = 2
			full_idea_group = administrative_ideas
		}
		modifier = {
			factor = 10
			full_idea_group = diplomatic_ideas
		}
		modifier = {
			factor = 2
			tag = Z50
		}
		modifier = {
			factor = 2
			government = monarchy
		}
		modifier = {
			factor = 2
			government = republic
		}
		modifier = {
			factor = 5
			government = theocracy
		}
		modifier = {
			factor = 5
			has_ruler_flag = orc_winner_of_ozarmchadash
		}
	}

	# Give up claims to the throne
	option = {
		name = orc_flavor.1.a
		ai_chance = {
			factor = 30 
			modifier = {
				factor = 0
				ruler_has_personality = intricate_webweaver
			}
		}
		reduce_stability_or_adm_power = yes
		add_prestige = -10
		define_ruler = {
			adm = 0
			dip = 0
			mil = 4
			claim = 50
			culture = ROOT
		}
		add_ruler_modifier = {
			name = ozarm_chadash_without_fight	#+50% stability cost
			duration = 1825
		}
	}
	
	# Assasinate the pretender
	option = {
		name = orc_flavor.1.b
		trigger = {
			OR = {
				ruler_has_personality = intricate_webweaver
				spy_ideas = 1
				dip = 5
			}
		}
		ai_chance = {
			factor = 30 
		}
		random_list = {
			80 = {
				add_prestige = -10
				reduce_stability_or_adm_power = yes
				add_ruler_modifier = {
					name = ozarm_chadash_outraged_by_dishonor	#+4 national unrest, +50% stability cost
					duration = 1825
				}
			}
			20 = {
				increase_ruler_dip_effect = yes
			}
		}
	}
	
	#Fight!
	option = {
		name = orc_flavor.1.c
		ai_chance = {
			factor = 70 
		}
		custom_tooltip = lets_fight_tooltip
		hidden_effect = {
			random_list = {
				50 = {
					country_event = { id = orc_flavor.2 }
				}
				50 = {
					country_event = { id = orc_flavor.3 }
				}
			}
		}
	}
}

#Fight Lost!
country_event = {
	id = orc_flavor.2
	title = orc_flavor.2.t
	desc = orc_flavor.2.d
	picture = DEATH_OF_HEIR_eventPicture
	
	is_triggered_only = yes
	
	trigger = {
		always = yes
	}
	
	#Death of the ruler
	option = {
		name = orc_flavor.2.a
		custom_tooltip = ozarm_chadash_fight_lost_tooltip
		add_prestige = 10
		add_mil_power = 50
		define_ruler = {
			adm = 0
			dip = 0
			mil = 4
			claim = 50
			culture = ROOT
		}
		add_ruler_modifier = { #+33% stability cost
			name = ozarm_chadash_shift_of_power
			duration = 1825  
		}
		add_estate_loyalty = {
			estate = estate_monstrous_tribes
			loyalty = 20
		}
	}
}

#Fight Won!
country_event = {
	id = orc_flavor.3
	title = orc_flavor.3.t
	desc = orc_flavor.3.d
	picture = REFORM_eventPicture
	
	is_triggered_only = yes
	
	trigger = {
		always = yes
	}
	
	#Give up the throne
	option = {
		name = orc_flavor.3.a
		custom_tooltip = ozarm_chadash_fight_won_tooltip
		add_prestige = 25
		add_stability_or_adm_power = yes
		add_mil_power = 150
		increase_ruler_mil_effect = yes
		add_ruler_modifier = {	#+5% morale of armies
			name = ozarm_chadash_defeated_pretender
			duration = -1  
		}
		add_estate_loyalty = {
			estate = estate_monstrous_tribes
			loyalty = 20
		}
	}
}

#Gray Orc Tribe submit to Grombar
country_event = {
	id = orc_flavor.100
	title = orc_flavor.100.t
	desc = orc_flavor.100.d
	picture = DIPLOMACY_eventPicture
	
	trigger = {
		OR = {
			AND = {
				primary_culture = gray_orc
				NOT = { tag = Z50 }
			}
		}
		Z50 = {
			exists = yes
		}
		NOT = {
			vassal_of = Z50
		}
	}
	
	mean_time_to_happen = {
		months = 1
	}
	
	#Submit
	option = {
		name = orc_flavor.100.a
		ai_chance = {
			factor = 100 
		}
		add_historical_friend = Z50
		Z50 = {
			vassalize = ROOT
			add_historical_friend = ROOT
		}
	}
	
	#Resist
	option = {
		name = orc_flavor.100.b
		ai_chance = {
			factor = 0 
		}
		add_prestige = 25
		remove_historical_friend = Z50
		add_historical_rival = Z50
	}
}