namespace = racial_pop_events


#Generic Demand Representation
country_event = {
	id = racial_pop_events.1
	title = racial_pop_events.1.t
	desc = racial_pop_events.1.d
	picture = COURT_eventPicture
	
	trigger = {
		has_minority_trigger = yes
	}
	
	is_triggered_only = yes
	
	mean_time_to_happen = {
		days = 1
	}
	
	immediate = {
		hidden_effect = {
			random_owned_province = {
				limit = {
					has_minority_trigger = yes
				}
				save_event_target_as = racial_province
			}
		}
		
		
	}
	
	# option = {		#Of Course! | small increase
		# name = racial_pop_events.1.a
		# ai_chance = {
			# factor = 50
			# #Per Race
			# if = {
				# limit = { 
					# event_target:racial_province = {
						# limit = {
							# has_dwarven_minority_trigger = yes
						# }
					# }
				# }
				# small_increase_of_dwarven_tolerance_effect = yes
			# }
			# if = {
				# limit = { 
					# event_target:racial_province = {
						# limit = {
							# has_dwarven_minority_trigger = yes
						# }
					# }
				# }
				# small_increase_of_dwarven_tolerance_effect = yes
			# }
			# if = {
				# limit = { 
					# event_target:racial_province = {
						# limit = {
							# has_dwarven_minority_trigger = yes
						# }
					# }
				# }
				# small_increase_of_dwarven_tolerance_effect = yes
			# }
			# if = {
				# limit = { 
					# event_target:racial_province = {
						# limit = {
							# has_dwarven_minority_trigger = yes
						# }
					# }
				# }
				# small_increase_of_dwarven_tolerance_effect = yes
			# }
		# }
	# }
	
	option = {		# Obviously these claims are fake
		name = racial_pop_events.1.b
		# random = {
			# chance = 100
				# event_target:racial_province = {
					# add_troll_minority_size_effect = yes
				# } 
				# event_target:racial_province = {
					# add_orcish_minority_size_effect = yes
				# } 
				# event_target:racial_province = {
					# add_harpy_minority_size_effect = yes
				# } 
			# }
					# event_target:racial_province = {
						# limit = {
							# has_elven_minority_trigger = yes
						# }
						# add_troll_minority_size_effect = yes
					# }
					
		random_list = {
			if = {
				limit = { 
					event_target:racial_province = {
						has_dwarven_minority_trigger = yes
					} 
				}
				25 = {
					event_target:racial_province = {
						remove_dwarven_minority_size_effect = yes
					} 
				}
			}
			if = {
				limit = { 
					event_target:racial_province = {
						has_elven_minority_trigger = yes
					} 
				}
				25 = {
					event_target:racial_province = {
						remove_elven_minority_size_effect = yes
					} 
				}
			}
			if = {
				limit = { 
					event_target:racial_province = {
						has_halfling_minority_trigger = yes
					} 
				}
				25 = {
					event_target:racial_province = {
						remove_halfling_minority_size_effect = yes
					} 
				}
			}
		}
	}
	option = {		# Punish them for these lies
		name = racial_pop_events.1.c
		ai_chance = {
			factor = 50
			modifier = {
				factor = 1.2
				has_dlc = "The Cossacks"
				has_estate = estate_nobles
				NOT = {
					estate_loyalty = {
						estate = estate_nobles
						loyalty = 40
					}
				}
			}
			modifier = {
				factor = 0.5
				ai_equal_to_wanted_tolerance_elven = yes
			}
			modifier = {
				factor = 0.1
				ai_lower_than_wanted_tolerance_elven = yes
			}
		}
		add_mil_power = -10
		if = {
			limit = { has_estate = estate_nobles }
			add_estate_loyalty = {
				estate = estate_nobles
				loyalty = 5
			}
		}
		small_decrease_of_elven_tolerance_effect = yes
		event_target:elven_lords_province = {
			area = {
				limit = {
					owned_by = ROOT
					NOT = { has_province_modifier = elven_local_lords }
					NOT = { has_province_modifier = elven_local_lords_punished }
					has_elven_minority_trigger = yes
				}
				add_province_modifier = {
					name = elven_local_lords_punished
					duration = 3650
				}
			}
		}
	}
	option = {		# Explain their duties to them
		name = racial_pop_events.1.e
		trigger = { ruler_has_personality = calm_personality }
		required_personality = calm_personality
		highlight = yes
		ai_chance = {
			factor = 100
		}
		custom_tooltip = racial_pop_events_2_e_tooltip
	}
	option = {		# These documents are fake!
		name = racial_pop_events.1.f
		trigger = {
			OR = {
				ruler_has_personality = embezzler_personality
				ruler_has_personality = intricate_web_weaver_personality
			}
		}
		required_personality = embezzler_personality
		required_personality = intricate_web_weaver_personality
		highlight = yes
		ai_chance = {
			factor = 100
			modifier = {
				factor = 1.2
				has_dlc = "The Cossacks"
				has_estate = estate_nobles
				NOT = {
					estate_loyalty = {
						estate = estate_nobles
						loyalty = 40
					}
				}
			}
			modifier = {
				factor = 0.5
				ai_equal_to_wanted_tolerance_elven = yes
			}
			modifier = {
				factor = 0.1
				ai_lower_than_wanted_tolerance_elven = yes
			}
		}
		custom_tooltip = racial_pop_events_2_f_tooltip
		add_estate_nobles_loyalty_effect = yes
		small_decrease_of_elven_tolerance_effect = yes
		event_target:elven_lords_province = {
			area = {
				limit = {
					owned_by = ROOT
					NOT = { has_province_modifier = elven_local_lords }
					NOT = { has_province_modifier = elven_local_lords_punished }
					has_elven_minority_trigger = yes
				}
				add_unrest = -1
				add_province_modifier = {
					name = elven_local_lords_punished
					duration = 1825
				}
			}
		}
	}
}